<svg xmlns="http://www.w3.org/2000/svg" width="511" height="55" viewBox="0 0 511 55">
    <g fill="none" fill-rule="evenodd">
        <g>
            <g>
                <path fill="#B9C800" d="M35.482 35.124c0 8.13-5.93 13.47-17.42 13.47-3.987.014-7.925-.874-11.52-2.6l-5.68 2.34V7.564c4.135-1.234 8.416-1.907 12.73-2 9.3 0 14.71 4.46 14.71 10.68.026 2.36-.897 4.628-2.56 6.3 6.12 1.42 9.74 6.1 9.74 12.58zm-27.31 5.15c2.935 1.537 6.207 2.321 9.52 2.28 6.88 0 10.18-3.08 10.18-8 0-5.13-3.36-8.12-11.79-8.64 3.52-2.56 5.13-5.49 5.13-8.12 0-3.15-2.13-6.15-7.62-6.15-1.835.007-3.66.277-5.42.8v27.83zm32.69-24.66c4.092-2.098 8.612-3.224 13.21-3.29 8.85 0 13.32 4.39 13.32 11.86v24.15l-5.79-2.34c-2.988 1.77-6.407 2.68-9.88 2.63-9.07 0-13.17-4.9-13.17-10-.116-2.978 1.057-5.86 3.22-7.91 3.29-3.07 9.22-5.12 18.59-5.92-.07-4.47-2.41-6.44-7.17-6.44-3.755.166-7.418 1.217-10.69 3.07l-1.64-5.81zm11.82 27.23c2.729.024 5.403-.767 7.68-2.27v-10.25c-11.86 1.25-14.5 4.25-14.5 7.8 0 2.86 2.56 4.76 6.81 4.76l.01-.04zm27.59-27.37c3.474-2.012 7.406-3.097 11.42-3.15 3.73 0 6.87 1.17 8.85 3.22 1.83 1.9 2.86 4.61 2.86 8.42v23.86h-7v-22c0-2.86-.51-4.39-1.61-5.49-1.358-1.105-3.083-1.654-4.83-1.54-2.99.056-5.905.941-8.42 2.56v26.47h-7v-35.21l5.73 2.86zm33.59 14.78l14.86 17.57h-8.93l-14.79-17.42 15.08-17.42h8.86l-15.08 17.27zm19.47 17.57h7v-34.84h-7v34.84zm14.27-32.21c4.08-2.093 8.586-3.219 13.17-3.29 8.86 0 13.32 4.39 13.32 11.86v24.15l-5.78-2.34c-2.988 1.77-6.407 2.68-9.88 2.63-9.07 0-13.17-4.9-13.17-10-.116-2.978 1.057-5.86 3.22-7.91 3.29-3.07 9.22-5.12 18.59-5.92-.08-4.47-2.42-6.44-7.17-6.44-3.755.166-7.42 1.217-10.69 3.07l-1.61-5.81zm11.78 27.23c2.732.025 5.41-.765 7.69-2.27v-10.25c-11.86 1.25-14.49 4.25-14.49 7.76 0 2.86 2.56 4.76 6.8 4.76z" transform="translate(-120 -423) translate(119 423)"/>
                <path fill="#F4C00E" d="M234.273 28.156c.569.398.542 1.197 1.052 1.595l.257 1.763-1.278 1.874c-1.625.857-4.043 1.226-5.552-.138-.853-.767-1.082-1.876-.853-2.99l.597-1.615c.34-.231.796-.287 1.025-.686.798-.51 1.822-.396 2.73-.594.686.225 1.71-.146 2.022.79" transform="translate(-120 -423) translate(119 423)"/>
                <path fill="#E65A2B" d="M230.061 38.542c.511 0 .882.37 1.367.285.681.255.597 1.083 1.31 1.281.538 1.077.88 2.245 1.162 3.414-.196.68.371 1.081.173 1.706l.198.113c.028.651-.055 1.394-.313 2.02.115 1.196-.483 2.191-.998 3.214-.364.232-.537.883-1.049.768-.91.288-.995 1.65-2.106 1.48-.71.541-1.678.227-2.531.254-.483-.255-1.166-.193-1.51-.622-.852-.345-1.62-.97-2.359-1.59-.284-.634-.94-.917-1.025-1.625.257-.857-.284-1.626-.056-2.474l-.17-1.425.538-2.446c.91-.485.655-1.593 1.564-1.935.57-1.309 1.935-1.595 2.988-2.252.4-.083.883.145 1.195-.225.57-.085 1.11.516 1.623.06" transform="translate(-120 -423) translate(119 423)"/>
                <path fill="#009AD8" d="M276.464.647c-.226 4.013-3.524 6.712-5.262 10.1-.741 2.02-2.503 3.213-3.756 5.034-1.14 1.167-2.246 2.448-3.185 3.755.172.933 1.166 1.2 1.734 1.879 1.28.766 1.422 2.217 2.532 3.099.655 0 .655.968 1.366.855 1.509 1.62 2.73 3.3 3.982 5.065.203.623.515 1.25 1.054 1.705.993 1.454 1.822 2.989 2.845 4.469.142 1.647 1.539 2.758 1.965 4.293.626.826.88 1.794 1.453 2.615.879 1.939 1.476 3.958 2.529 5.808.199.43-.058.856-.283 1.168-.403.315-.714-.257-1.168-.171-2.332-.857-4.552-2.078-6.713-3.384-2.223-1.797-4.666-3.074-6.858-4.953-.855-.225-1.195-1.227-1.993-1.624-2.107-1.308-3.784-3.183-5.92-4.405-.966-.745-1.93-1.454-2.897-2.221-.743-.09-.997-.94-1.708-1.195-1.595-.968-3.044-2.302-4.665-3.216-.143.228 0 .567-.143.797-1.083 1.052-.796 2.674-1.567 3.84-.028 1.68-1.194 2.907-1.678 4.38-1.337 2.392-2.507 4.84-3.898 7.203-1.85 2.444-2.845 5.406-5.464 7.368-.57.71-1.22 1.079-1.934 1.537-.312-.084-.766-.031-.855-.43-.312-.594.089-1.507-.34-2.048.37-.824.142-1.763.313-2.673l-.14-.396c.027-1.254.654-2.306.396-3.587.342-.796.487-1.681.57-2.56.4-1.083.744-2.248.854-3.42.37-.677.513-1.558.427-2.355.284-.743.339-1.625 1.108-2.165.115-.484 0-.965.086-1.475.77-2.336 1.705-4.586 2.306-6.973 0-.173-.172-.227-.284-.256-1.68-.088-3.244.256-4.81-.171-2.562-.03-5.147-.37-7.595-.88-.996-.2-2.192-.09-3.103-.658-.596.026-1.281.143-1.85-.167-1.166-.573-2.588-.486-3.755-1.116-.882.118-1.508-.451-2.303-.537-.767.059-1.197-.598-1.737-1.023V21.3c1.42-1.932 3.697-2.473 5.748-3.212 2.02-.63 4.266-.685 6.372-1.114 1.339-.222 2.789.148 4.123-.088 2.42.062 4.754.458 7.146.517.796.114 1.535.484 2.333.458l-.03-.344-2.25-3.076c-.851-1.988-2.413-3.665-2.956-5.773-.513-.624-.031-1.564-.425-2.247-.03-.312.225-.543.367-.797.486-.198 1.022.144 1.509-.172 1.452.342 2.789.856 4.24 1.137 1.507.599 3.042 1.199 4.38 2.194 1.68 1.194 3.7 1.964 5.008 3.813.342.31.883.368 1.338.255.394-.056.485-.542.852-.683 1.765-1.108 3.755-1.738 5.493-2.957.709-.713 1.849-.797 2.274-1.768.542-.255 1.026-.596 1.594-.736.996-.71 1.993-1.48 3.07-2.047.573-.064 1.027-.373 1.484-.686 1.762-.965 3.612-1.765 5.288-2.878.374-.99 1.485-.765 2.279-.99.394.084.937.022 1.107.54" transform="translate(-120 -423) translate(119 423)"/>
                <path fill="#000" d="M444.44 30.428c1.312-1.938 2.62-2.776 5.187-2.776 3.565 0 3.77 3.142 3.77 5.973-.73 0-1.62-.157-2.459-.157-4.769 0-10.06 2.147-10.06 7.699 0 3.878 3.507 6.078 7.073 6.078 2.303 0 3.982-1.257 5.765-2.567.63 1.31 2.201 2.304 4.19 2.567l3.93-3.142-.788-.783c-.366.104-.84.205-1.1.205-1.153 0-1.57-.681-1.57-3.087V38.6c.051-2.985.207-5.708.207-7.596 0-5.237-3.98-6.493-8.646-6.493-2.459 0-4.557.312-6.755.94v4.977h1.256zm9.116 12.781c-.837.527-1.884.894-3.508.894-2.199 0-4.087-1.834-4.087-4.245 0-3.351 2.515-4.609 4.922-4.609.942 0 1.94.156 2.514.263l.16 7.697zM327.96 17.174h-2.256c-1.661-5.05-6.932-7.037-11.555-7.037-9.346 0-13.216 7.522-13.216 16.552 0 15.146 10.958 17.727 15.42 17.727 4.355 0 8.278-1.88 10.641-5.638l1.669.696-1.669 5.963c-4.295.81-6.985 1.236-10.476 1.236-16.018 0-23.051-9.885-23.051-19.558 0-11.069 8.546-19.236 20.579-19.236 6.985 0 9.671 1.18 13.486 2.148l.428 7.147zM344.287 35.49c-.578-.108-1.577-.262-2.52-.262-2.412 0-4.93 1.26-4.93 4.616 0 2.417 1.89 4.255 4.091 4.255 1.626 0 2.677-.368 3.52-.887l-.16-7.723zm-10.234-5.092v-4.985c2.206-.628 4.302-.945 6.77-.945 4.674 0 8.66 1.262 8.66 6.506 0 1.89-.158 4.62-.21 7.616v1.836c0 2.411.422 3.094 1.573 3.094.265 0 .733-.103 1.104-.212l.784.791-3.93 3.149c-1.998-.26-3.573-1.264-4.2-2.576-1.782 1.313-3.464 2.576-5.773 2.576-3.566 0-7.086-2.206-7.086-6.09 0-5.565 5.302-7.714 10.077-7.714.84 0 1.731.153 2.465.153 0-2.83-.209-5.977-3.776-5.977-2.574 0-3.883.836-5.2 2.778h-1.258zM358.708 15.66c1.526 0 2.891 1.104 2.891 2.68 0 1.573-1.365 2.67-2.891 2.67-1.518 0-2.884-1.098-2.884-2.67 0-1.576 1.366-2.68 2.884-2.68zm2.576 8.87c0 2.203.211 6.82.211 11.123v7.666c0 1.781.84 2.047 2.048 2.361v1.056c-1.577 0-3.154-.166-4.725-.166-1.415 0-2.834.108-4.25.166V45.68c1.256-.314 1.834-.58 1.834-2.361v-6.508c0-3.783-.307-5.881-.736-6.981-.417-1.049-.944-1.416-2.201-1.631v-1.044c2.415-.576 5.195-1.575 6.769-2.625h1.05zM366.156 45.681c1.684-.262 2.781-1.578 3.465-2.465l5.087-6.509-6.032-8.19c-1-1.309-1.367-1.677-2.889-2.358v-1.054c1.58.055 3.203.163 4.778.163 1.57 0 3.148-.108 4.725-.163v1.054c-.63.312-1.1.419-1.1 1.206 0 .37.155 1.048.622 1.681l2.887 3.93 2.574-3.409c.526-.732.786-1.367.786-1.732 0-.995-.626-1.364-1.469-1.676v-1.054c1.417.055 2.784.163 4.2.163 1.364 0 2.78-.108 4.147-.163v1.054c-2.05.47-3.15 1.73-4.3 3.2l-4.468 5.667 5.672 7.871c.785 1.054 1.991 2.362 3.31 2.784v1.055c-1.58-.058-3.102-.166-4.675-.166-1.578 0-3.102.108-4.676.166v-1.055c.58-.054 1.054-.629 1.054-1.158 0-.31-.422-1.152-.844-1.783l-2.83-4.042-2.837 3.833c-.314.471-.73 1.467-.73 1.942 0 .836.416 1.102 1.1 1.208v1.055c-1.367-.058-2.785-.166-4.145-.166-1.155 0-2.259.108-3.412.166v-1.055zM402.102 35.49c-.58-.108-1.577-.262-2.521-.262-2.417 0-4.933 1.26-4.933 4.616 0 2.417 1.892 4.255 4.09 4.255 1.629 0 2.679-.368 3.522-.887l-.158-7.723zm-10.24-5.092v-4.985c2.205-.628 4.303-.945 6.776-.945 4.667 0 8.657 1.262 8.657 6.506 0 1.89-.16 4.62-.21 7.616v1.836c0 2.411.42 3.094 1.572 3.094.263 0 .738-.103 1.102-.212l.788.791-3.935 3.149c-1.992-.26-3.568-1.264-4.198-2.576-1.786 1.313-3.464 2.576-5.772 2.576-3.572 0-7.09-2.206-7.09-6.09 0-5.565 5.3-7.714 10.079-7.714.84 0 1.73.153 2.47.153 0-2.83-.212-5.977-3.778-5.977-2.575 0-3.887.836-5.2 2.778h-1.261zM420.815 29.28c1.098 0 1.937-.053 2.828-.053 5.031 0 7.96 3.558 7.96 8.327 0 4.038-2.669 7.284-7.174 7.284-3.249 0-3.614-.526-3.614-3.354V29.28zm-5.608 12.99c0 2.253-.68 3.039-2.985 3.295v.945h9.011c.732 0 1.467.053 2.147.11.736.05 1.467.1 2.151.1 5.707 0 12.467-2.197 12.467-8.955 0-5.45-3.299-8.225-8.227-9.588v-.105c3.931-1.255 7.6-4.141 7.6-8.593 0-6.811-7.023-9.326-12.894-9.326-1.256 0-2.459.214-4.815.214-2.097 0-4.243-.214-6.865-.214v1.154c1.414.21 2.253.68 2.253 2.672 0 4.718.157 11.366.157 17.657V42.27zm5.868-29.18c0-.998.63-1.05 2.094-1.05 5.66 0 7.807 3.039 7.807 7.649 0 4.56-3.145 7.44-7.807 7.44-.678 0-1.41-.051-2.354-.101l.26-13.937zM462.688 28.134c1.574 0 2.305.89 2.305 2.41 0 1.678.262 4.506.262 7.545v5.133c0 1.785-.627 1.993-1.938 2.466v1.045c1.47 0 2.986-.156 4.452-.156 1.52 0 2.988.104 4.507.156v-1.045c-1.416-.158-1.942-.578-1.942-2.466V38.93c0-4.088.108-7.024.108-9.013 0-1.936 3.354-2.463 4.4-2.463 3.72 0 4.298 3.88 4.298 6.708v9.061c0 1.785-.42 2.15-1.887 2.466v1.045c1.675 0 3.298-.156 4.976-.156 1.31 0 2.567.104 3.877.156v-1.045c-1.467-.42-1.887-.788-1.887-2.466V32.116c0-4.45-2.04-7.544-7.228-7.544-2.203 0-4.558 1.31-6.392 2.517.05-.892.05-1.726.103-2.62h-1.048c-1.988 1.257-3.875 2.044-6.966 2.62v1.045zM510.768 45.622c-1.57-.474-3.455-2.146-4.135-2.937l-7.915-9.27 4.036-4.243c1.259-1.309 2.988-2.514 4.873-3.038v-1.047c-1.308.1-2.617.157-3.928.157-1.416 0-2.883-.057-4.298-.157v1.047c.47.21.944.836.944 1.363 0 .574-.263 1.36-1.36 2.46l-4.298 4.241V9.524h-1.154c-1.884 1.417-4.345 2.515-6.968 3.198v1.202c1.31 0 2.513 1.26 2.623 3.41.153 1.985.417 5.914.417 8.957v16.973c0 1.155-.417 2.095-1.99 2.358v1.048c1.412-.108 2.774-.16 4.188-.16 1.572 0 3.092.16 4.664.16v-1.048c-1.258-.263-1.78-.889-1.78-2.46v-7.18h.107l5.393 5.923c.89.991 1.519 2.197 1.519 2.773 0 .525-.364.944-.837.944v1.048c1.78 0 3.56-.16 5.342-.16 1.517 0 3.039.11 4.557.16v-1.048z" transform="translate(-120 -423) translate(119 423)"/>
            </g>
        </g>
    </g>
</svg>
