<?xml version="1.0" encoding="UTF-8"?>
<svg width="32px" height="32px" viewBox="0 0 32 32" version="1.1" xmlns="http://www.w3.org/2000/svg" xmlns:xlink="http://www.w3.org/1999/xlink">
    <title>Icon/Banca Digital-Acceso CaixaBankNow</title>
    <g id="Icon/Banca-Digital-Acceso-CaixaBankNow" stroke="none" stroke-width="1" fill="none" fill-rule="evenodd">
        <path d="M24.9082552,21.7200477 C24.9082552,22.1720704 25.2881644,22.5383714 25.7560612,22.5383714 C26.2239581,22.5383714 26.6038673,22.1720704 26.6038673,21.7200477 C26.6038673,21.6157348 26.5836355,21.5159869 26.5467593,21.4242523 L29.6100109,21.4233942 C30.1026495,21.4233942 30.5049814,21.0651107 30.5599439,20.6075521 L30.5661904,20.5073173 L30.56815,21.8420556 C30.56815,22.7686185 30.5632672,23.6592265 29.7235863,23.6592265 L22.2789236,23.6592265 C21.7920349,23.6592265 21.119801,23.82473 20.7705371,23.4476297 C20.4876729,23.1422212 20.4761904,22.3341612 20.4761904,21.9533931 C20.4761904,21.1024752 20.7343215,20.5003173 20.7343215,20.5003173 C20.7343215,21.0078701 21.1644548,21.4233942 21.6906549,21.4233942 L24.9653631,21.4242523 C24.928487,21.5159869 24.9082552,21.6157348 24.9082552,21.7200477 Z" id="Combined-Shape" fill="#DFE7EA"></path>
        <polygon id="Rectangle" fill="#DFE7EA" points="1 17 20 17 20 20.6 2.73684279 20.6 1 19.2875328"></polygon>
        <g id="Group-3" transform="translate(1.000000, 2.000000)">
            <g id="Group">
                <path d="M19.2375126,18.5931189 C15.6276349,18.5931189 9.47410533,18.5931189 2.2543499,18.5931189 C1.00938517,18.5931189 0,17.7126483 0,16.6266855 L0,1.96643334 C0,0.880470529 1.00938517,0 2.2543499,0 L25.0221568,0 C26.2671215,0 27.2765067,0.880470529 27.2765067,1.96643334 C27.2765067,2.77257049 27.2765067,3.96081751 27.2765067,4.36388608" id="Path" stroke="#007FB1" stroke-linecap="round"></path>
                <line x1="0.199064256" y1="14.896989" x2="19.2375126" y2="14.896989" id="Path" stroke="#007FB1"></line>
                <ellipse id="Oval" stroke="#007EAE" stroke-width="0.550023024" fill="#007EAE" cx="13.5750435" cy="16.7563008" rx="1" ry="1"></ellipse>
                <line x1="7.80502431" y1="23.6623164" x2="19.3450848" y2="23.6623164" id="Stroke-7" stroke="#007EAE" stroke-linecap="round" stroke-linejoin="round"></line>
                <line x1="10.0697293" y1="23.665858" x2="10.5942775" y2="18.3535383" id="Stroke-7" stroke="#007EAE"></line>
                <line x1="16.888856" y1="23.665858" x2="16.3643078" y2="18.3535383" id="Stroke-7-Copy" stroke="#007EAE"></line>
            </g>
            <g id="iconos" transform="translate(19.237513, 4.608295)" stroke="#007EAE">
                <path d="M9.34888165,17.4731183 L1.41360575,17.4731183 C0.632941976,17.4731183 0,16.8703649 0,16.1269353 L0,1.34618296 C0,0.602416875 0.632941976,0 1.41360575,0 L9.34888165,0 C10.1295454,0 10.7624874,0.602416875 10.7624874,1.34618296 L10.7624874,16.1269353 C10.7624874,16.8703649 10.1295454,17.4731183 9.34888165,17.4731183 Z" id="Stroke-6" stroke-linecap="round"></path>
                <path d="M8.63625158,13.0296679 L1.96466083,13.0296679 C1.88628845,13.0296679 1.82268188,12.9575953 1.82268188,12.8687916 L1.82268188,1.88898686 C1.82268188,1.80018317 1.88628845,1.7281106 1.96466083,1.7281106 L8.63625158,1.7281106 C8.71434001,1.7281106 8.77823053,1.80018317 8.77823053,1.88898686 L8.77823053,12.8687916 C8.77823053,12.9575953 8.71434001,13.0296679 8.63625158,13.0296679 Z" id="Stroke-8" stroke-linecap="round"></path>
                <path d="M6.17749779,15.004414 C6.17749779,14.6379379 5.88394909,14.3409603 5.522414,14.3409603 C5.16087891,14.3409603 4.86733021,14.6379379 4.86733021,15.004414 C4.86733021,15.3708901 5.16087891,15.6678677 5.522414,15.6678677 C5.88394909,15.6678677 6.17749779,15.3708901 6.17749779,15.004414 Z" id="Stroke-10" stroke-width="0.5" fill="#007EAE"></path>
            </g>
        </g>
        <g id="shadow" transform="translate(7.000000, 30.000000)" fill="#DFE7EA">
            <ellipse id="Oval" cx="9.46514024" cy="0.887356898" rx="9.46514024" ry="1"></ellipse>
        </g>
    </g>
</svg>